[
    {
        "name" : "Audi RS3",
        "color" : "Catalunya Red",
        "price" : "54 000$",
        "img" : "./cars-images/Audi_RS3.jpg",
        "id" : "25"
    },
    {
        "name" : "Audi RS4",
        "color" : "Misano Red",
        "price" : "73 000$",
        "img" : "./cars-images/Audi_RS4.jpg",
        "id" : "26"
    },
    {
        "name" : "Audi A5-cabriolet",
        "color" : "Monsoon Gray",
        "price" : "45 000$",
        "img" : "./cars-images/Audi_A5-cabrio.jpg",
        "id" : "27"
    },
    {
        "name" : "Audi RS5",
        "color" : "Ibus White",
        "price" : "75 000$",
        "img" : "./cars-images/Audi_RS5.jpg",
        "id" : "28"
    },
    {
        "name" : "Audi RS6",
        "color" : "Daytona Gray",
        "price" : "195 000$",
        "img" : "./cars-images/Audi_RS6.jpg",
        "id" : "29"
    },
    {
        "name" : "Audi A6",
        "color" : "Terra Gray",
        "price" : "65 000$",
        "img" : "./cars-images/Audi_A6.jpg",
        "id" : "30"
    },
    {
        "name" : "Audi A8",
        "color" : "Firmament Blue",
        "price" : "110 000$",
        "img" : "./cars-images/Audi_A8.jpg",
        "id" : "31"
    },
    {
        "name" : "Audi RS7",
        "color" : "Misano Red",
        "price" : "197 000$",
        "img" : "./cars-images/Audi_RS7.jpg",
        "id" : "32"
    },
    {
        "name" : "Audi RS e-tron",
        "color" : "Kemora Gray",
        "price" : "157 000$",
        "img" : "./cars-images/Audi_RS-e-tron.jpg",
        "id" : "33"
    },
    {
        "name" : "Audi Q7",
        "color" : "Glacier White",
        "price" : "98 000$",
        "img" : "./cars-images/Audi_Q7.jpg",
        "id" : "34"
    },
    {
        "name" : "Audi RSQ8",
        "color" : "Java green",
        "price" : "204 000$",
        "img" : "./cars-images/Audi_RSQ8.jpg",
        "id" : "35"
    },
    {
        "name" : "Audi R8",
        "color" : "Navarra Blue",
        "price" : "253 000$",
        "img" : "./cars-images/Audi_R8.jpg",
        "id" : "36"
    }
]